proyecto_ts_australia
…
library(TTR)

data("vic_elec")

df <- vic_elec |>
  as_tibble() |>
  group_by(Date) |> 
  summarise(demand = sum(Demand))

df

# A tibble: 1,096 × 2
   Date        demand
   <date>       <dbl>
 1 2012-01-01 222438.
 2 2012-01-02 257965.
 3 2012-01-03 267099.
 4 2012-01-04 222742.
 5 2012-01-05 210585.
 6 2012-01-06 210247.
 7 2012-01-07 202526.
 8 2012-01-08 193413.
 9 2012-01-09 213804.
10 2012-01-10 215020.
# ℹ 1,086 more rows
…
