2 La librería tidyverse – Apuntes sobre Modelización de Computación Predictiva
…
La librería se puede instalar mediante el comando install.packages("tidyverse") en la consola.

library(tidyverse)
data(starwars)

2.2 La función select()

Selecciona columnas por nombre:

# filosofía de tidyverse: primero datos y después las funciones
starwars |>
  select(name, height, mass, hair_color)

# A tibble: 87 × 4
   name               height  mass hair_color   
   <chr>               <int> <dbl> <chr>        
 1 Luke Skywalker        172    77 blond        
 2 C-3PO                 167    75 <NA>         
 3 R2-D2                  96    32 <NA>         
 4 Darth Vader           202   136 none         
 5 Leia Organa           150    49 brown        
 6 Owen Lars             178   120 brown, grey  
 7 Beru Whitesun Lars    165    75 brown        
 8 R5-D4                  97    32 <NA>         
 9 Biggs Darklighter     183    84 black        
10 Obi-Wan Kenobi        182    77 auburn, white
# ℹ 77 more rows

# todas las columnas entre name y  hair_color (ambas incluidas)
starwars |> 
  select(name:hair_color)

# A tibble: 87 × 4
   name               height  mass hair_color   
   <chr>               <int> <dbl> <chr>        
 1 Luke Skywalker        172    77 blond        
 2 C-3PO                 167    75 <NA>         
 3 R2-D2                  96    32 <NA>         
 4 Darth Vader           202   136 none         
 5 Leia Organa           150    49 brown        
 6 Owen Lars             178   120 brown, grey  
 7 Beru Whitesun Lars    165    75 brown        
 8 R5-D4                  97    32 <NA>         
 9 Biggs Darklighter     183    84 black        
10 Obi-Wan Kenobi        182    77 auburn, white
# ℹ 77 more rows

# con el signo - podemos excluir columnas
starwars |> 
  select(-mass)

# A tibble: 87 × 13
   name           height hair_color skin_color eye_color birth_year sex   gender
   <chr>           <int> <chr>      <chr>      <chr>          <dbl> <chr> <chr> 
 1 Luke Skywalker    172 blond      fair       blue            19   male  mascu…
 2 C-3PO             167 <NA>       gold       yellow         112   none  mascu…
 3 R2-D2              96 <NA>       white, bl… red             33   none  mascu…
 4 Darth Vader       202 none       white      yellow          41.9 male  mascu…
 5 Leia Organa       150 brown      light      brown           19   fema… femin…
 6 Owen Lars         178 brown, gr… light      blue            52   male  mascu…
 7 Beru Whitesun…    165 brown      light      blue            47   fema… femin…
 8 R5-D4              97 <NA>       white, red red             NA   none  mascu…
 9 Biggs Darklig…    183 black      light      brown           24   male  mascu…
10 Obi-Wan Kenobi    182 auburn, w… fair       blue-gray       57   male  mascu…
# ℹ 77 more rows
# ℹ 5 more variables: homeworld <chr>, species <chr>, films <list>,
#   vehicles <list>, starships <list>

# expresiones regulares
starwars |> 
  select(starts_with("h"))

# A tibble: 87 × 3
   height hair_color    homeworld
    <int> <chr>         <chr>    
 1    172 blond         Tatooine 
 2    167 <NA>          Tatooine 
 3     96 <NA>          Naboo    
 4    202 none          Tatooine 
 5    150 brown         Alderaan 
 6    178 brown, grey   Tatooine 
 7    165 brown         Tatooine 
 8     97 <NA>          Tatooine 
 9    183 black         Tatooine 
10    182 auburn, white Stewjon  
# ℹ 77 more rows

starwars |> 
  select(where(is.numeric))

# A tibble: 87 × 3
   height  mass birth_year
    <int> <dbl>      <dbl>
 1    172    77       19  
 2    167    75      112  
 3     96    32       33  
 4    202   136       41.9
 5    150    49       19  
 6    178   120       52  
 7    165    75       47  
 8     97    32       NA  
 9    183    84       24  
10    182    77       57  
# ℹ 77 more rows

2.3 La función filter()

Selecciona filas de la tabla que verifiquen una o más condiciones lógicas.

Ejemplo: seleccionamos filas de humanos (y usamos select para que se vea la columna species al principio):

starwars |>
  filter(species == "Human") |>
  select(name, species, everything())

# A tibble: 35 × 14
   name    species height  mass hair_color skin_color eye_color birth_year sex  
   <chr>   <chr>    <int> <dbl> <chr>      <chr>      <chr>          <dbl> <chr>
 1 Luke S… Human      172    77 blond      fair       blue            19   male 
 2 Darth … Human      202   136 none       white      yellow          41.9 male 
 3 Leia O… Human      150    49 brown      light      brown           19   fema…
 4 Owen L… Human      178   120 brown, gr… light      blue            52   male 
 5 Beru W… Human      165    75 brown      light      blue            47   fema…
 6 Biggs … Human      183    84 black      light      brown           24   male 
 7 Obi-Wa… Human      182    77 auburn, w… fair       blue-gray       57   male 
 8 Anakin… Human      188    84 blond      fair       blue            41.9 male 
 9 Wilhuf… Human      180    NA auburn, g… fair       blue            64   male 
10 Han So… Human      180    80 brown      fair       brown           29   male 
# ℹ 25 more rows
# ℹ 5 more variables: gender <chr>, homeworld <chr>, films <list>,
#   vehicles <list>, starships <list>

Ejemplo: Seleccionamos las filas correspondientes a humanos o a droides.

starwars |>
  filter(species == "Human" | species == "Droid") |>
  select(name, species, everything())

# A tibble: 41 × 14
   name    species height  mass hair_color skin_color eye_color birth_year sex  
   <chr>   <chr>    <int> <dbl> <chr>      <chr>      <chr>          <dbl> <chr>
 1 Luke S… Human      172    77 blond      fair       blue            19   male 
 2 C-3PO   Droid      167    75 <NA>       gold       yellow         112   none 
 3 R2-D2   Droid       96    32 <NA>       white, bl… red             33   none 
 4 Darth … Human      202   136 none       white      yellow          41.9 male 
 5 Leia O… Human      150    49 brown      light      brown           19   fema…
 6 Owen L… Human      178   120 brown, gr… light      blue            52   male 
 7 Beru W… Human      165    75 brown      light      blue            47   fema…
 8 R5-D4   Droid       97    32 <NA>       white, red red             NA   none 
 9 Biggs … Human      183    84 black      light      brown           24   male 
10 Obi-Wa… Human      182    77 auburn, w… fair       blue-gray       57   male 
# ℹ 31 more rows
# ℹ 5 more variables: gender <chr>, homeworld <chr>, films <list>,
#   vehicles <list>, starships <list>

# Equivalente
especies_admitidas <- c("Human", "Droid")
starwars |> 
  filter(species %in% especies_admitidas) |>
  select(name, species, everything())

# A tibble: 41 × 14
   name    species height  mass hair_color skin_color eye_color birth_year sex  
   <chr>   <chr>    <int> <dbl> <chr>      <chr>      <chr>          <dbl> <chr>
 1 Luke S… Human      172    77 blond      fair       blue            19   male 
 2 C-3PO   Droid      167    75 <NA>       gold       yellow         112   none 
 3 R2-D2   Droid       96    32 <NA>       white, bl… red             33   none 
 4 Darth … Human      202   136 none       white      yellow          41.9 male 
 5 Leia O… Human      150    49 brown      light      brown           19   fema…
 6 Owen L… Human      178   120 brown, gr… light      blue            52   male 
 7 Beru W… Human      165    75 brown      light      blue            47   fema…
 8 R5-D4   Droid       97    32 <NA>       white, red red             NA   none 
 9 Biggs … Human      183    84 black      light      brown           24   male 
10 Obi-Wa… Human      182    77 auburn, w… fair       blue-gray       57   male 
# ℹ 31 more rows
# ℹ 5 more variables: gender <chr>, homeworld <chr>, films <list>,
#   vehicles <list>, starships <list>
…
2.4 La función mutate()

Sirve para construir nuevas columnas a partir de las ya existentes.

starwars |>
  mutate(altura_en_metros = height / 100,
    IMC = mass / altura_en_metros^2) |>
  select(name, IMC, mass, height, altura_en_metros)

# A tibble: 87 × 5
   name                 IMC  mass height altura_en_metros
   <chr>              <dbl> <dbl>  <int>            <dbl>
 1 Luke Skywalker      26.0    77    172             1.72
 2 C-3PO               26.9    75    167             1.67
 3 R2-D2               34.7    32     96             0.96
 4 Darth Vader         33.3   136    202             2.02
 5 Leia Organa         21.8    49    150             1.5 
 6 Owen Lars           37.9   120    178             1.78
 7 Beru Whitesun Lars  27.5    75    165             1.65
 8 R5-D4               34.0    32     97             0.97
 9 Biggs Darklighter   25.1    84    183             1.83
10 Obi-Wan Kenobi      23.2    77    182             1.82
# ℹ 77 more rows
Ejercicio: Crear una nueva columna llamada “estado” que contenga “normal”, “sobrepeso” u “obeso”, según los valores de IMC. PISTA: mirar la ayuda de las funciones ifelse y case_when:

datos_limpios <- starwars |>
  mutate(
    IMC = mass / (height / 100) ^ 2,
    estado = case_when(
        IMC <= 30 ~ "normal", 
        IMC <= 34 ~ "sobrepeso",
        IMC > 34 ~ "obeso", 
        .default = "desconocido"
      ))

datos_limpios

# A tibble: 87 × 16
   name     height  mass hair_color skin_color eye_color birth_year sex   gender
   <chr>     <int> <dbl> <chr>      <chr>      <chr>          <dbl> <chr> <chr> 
 1 Luke Sk…    172    77 blond      fair       blue            19   male  mascu…
 2 C-3PO       167    75 <NA>       gold       yellow         112   none  mascu…
 3 R2-D2        96    32 <NA>       white, bl… red             33   none  mascu…
 4 Darth V…    202   136 none       white      yellow          41.9 male  mascu…
 5 Leia Or…    150    49 brown      light      brown           19   fema… femin…
 6 Owen La…    178   120 brown, gr… light      blue            52   male  mascu…
 7 Beru Wh…    165    75 brown      light      blue            47   fema… femin…
 8 R5-D4        97    32 <NA>       white, red red             NA   none  mascu…
 9 Biggs D…    183    84 black      light      brown           24   male  mascu…
10 Obi-Wan…    182    77 auburn, w… fair       blue-gray       57   male  mascu…
# ℹ 77 more rows
# ℹ 7 more variables: homeworld <chr>, species <chr>, films <list>,
#   vehicles <list>, starships <list>, IMC <dbl>, estado <chr>

2.5 La función arange()

Sirve para reordenar (según los valores de una o varias columnas) las filas del dataset.

Ejemplo: ordenar los datos recién calculados por la variable IMC, de menor a mayor:

datos_limpios |>
  arrange(desc(IMC))

# A tibble: 87 × 16
   name     height  mass hair_color skin_color eye_color birth_year sex   gender
   <chr>     <int> <dbl> <chr>      <chr>      <chr>          <dbl> <chr> <chr> 
 1 Jabba D…    175  1358 <NA>       green-tan… orange         600   herm… mascu…
 2 Dud Bolt     94    45 none       blue, grey yellow          NA   male  mascu…
 3 Yoda         66    17 white      green      brown          896   male  mascu…
 4 Owen La…    178   120 brown, gr… light      blue            52   male  mascu…
 5 IG-88       200   140 none       metal      red             15   none  mascu…
 6 R2-D2        96    32 <NA>       white, bl… red             33   none  mascu…
 7 Grievous    216   159 none       brown, wh… green, y…       NA   male  mascu…
 8 R5-D4        97    32 <NA>       white, red red             NA   none  mascu…
 9 Jek Ton…    180   110 brown      fair       blue            NA   <NA>  <NA>  
10 Darth V…    202   136 none       white      yellow          41.9 male  mascu…
# ℹ 77 more rows
# ℹ 7 more variables: homeworld <chr>, species <chr>, films <list>,
#   vehicles <list>, starships <list>, IMC <dbl>, estado <chr>

Ejemplo: en el dataset original, ordenar los humanos por color de ojos y, para deshacer empates, por la altura, de mayor a menor:

starwars |>
  filter(species == "Human") |>
  arrange(eye_color, desc(height))

# A tibble: 35 × 14
   name     height  mass hair_color skin_color eye_color birth_year sex   gender
   <chr>     <int> <dbl> <chr>      <chr>      <chr>          <dbl> <chr> <chr> 
 1 Qui-Gon…    193    89 brown      fair       blue            92   male  mascu…
 2 Anakin …    188    84 blond      fair       blue            41.9 male  mascu…
 3 Ric Olié    183    NA brown      fair       blue            NA   male  mascu…
 4 Cliegg …    183    NA brown      fair       blue            82   male  mascu…
 5 Wilhuff…    180    NA auburn, g… fair       blue            64   male  mascu…
 6 Owen La…    178   120 brown, gr… light      blue            52   male  mascu…
 7 Lobot       175    79 none       light      blue            37   male  mascu…
 8 Luke Sk…    172    77 blond      fair       blue            19   male  mascu…
 9 Finis V…    170    NA blond      fair       blue            91   male  mascu…
10 Jocasta…    167    NA white      fair       blue            NA   fema… femin…
# ℹ 25 more rows
# ℹ 5 more variables: homeworld <chr>, species <chr>, films <list>,
#   vehicles <list>, starships <list>
…
Ejemplo: peso y estatura medias en el dataset, por cada especie:

starwars |>
  group_by(species) |>
  summarise(
    peso_medio = mean(mass, na.rm = TRUE),
    altura_media = mean(height, na.rm = TRUE),
    numero_individuos = n() # número de filas de cada grupo
  )

# A tibble: 38 × 4
   species   peso_medio altura_media numero_individuos
   <chr>          <dbl>        <dbl>             <int>
 1 Aleena          15            79                  1
 2 Besalisk       102           198                  1
 3 Cerean          82           198                  1
 4 Chagrian       NaN           196                  1
 5 Clawdite        55           168                  1
 6 Droid           69.8         131.                 6
 7 Dug             40           112                  1
 8 Ewok            20            88                  1
 9 Geonosian       80           183                  1
10 Gungan          74           209.                 3
# ℹ 28 more rows
